1 0.352734 0.24375 0.0382813 0.0819444
1 0.341406 0.184028 0.028125 0.0625
3 0.476172 0.432639 0.0835937 0.420833
1 0.413281 0.185417 0.034375 0.0763889
1 0.238281 0.15625 0.03125 0.0708333
1 0.348047 0.338889 0.0476562 0.113889
1 0.232031 0.45 0.0609375 0.147222
1 0.302344 0.577083 0.09375 0.254167
1 0.807031 0.659722 0.123438 0.258333
1 0.144531 0.660417 0.109375 0.231944
