1 0.374219 0.0791667 0.01875 0.0416667
1 0.335156 0.134722 0.025 0.0527778
3 0.475781 0.395833 0.0828125 0.286111
1 0.258594 0.3375 0.053125 0.122222
3 0.323438 0.0555556 0.03125 0.0972222
1 0.416406 0.19375 0.025 0.0569444
1 0.352344 0.245833 0.0359375 0.0805556
1 0.238672 0.15625 0.0351562 0.0763889
1 0.484766 0.624306 0.0804688 0.206944
1 0.346484 0.343056 0.0507812 0.111111
1 0.235547 0.442361 0.0695312 0.156944
1 0.301953 0.576389 0.0929687 0.25
1 0.806641 0.655556 0.125781 0.247222
1 0.142969 0.65625 0.110937 0.226389
