1 0.425781 0.912963 0.260938 0.164815
1 0.638281 0.049537 0.0411458 0.0824074
1 0.683854 0.226389 0.0833333 0.147222
1 0.541406 0.0472222 0.0463542 0.0944444
1 0.49349 0.025463 0.0369792 0.0509259
1 0.595833 0.124537 0.0614583 0.117593
1 0.878385 0.5125 0.161979 0.258333
1 0.666406 0.487963 0.129688 0.238889
1 0.913021 0.768056 0.169792 0.406481
