1 0.324609 0.0583333 0.0382813 0.1
1 0.341797 0.181944 0.0304688 0.0611111
3 0.472266 0.397222 0.0867188 0.277778
1 0.353125 0.245833 0.0390625 0.0777778
1 0.259375 0.328472 0.053125 0.109722
1 0.441797 0.250694 0.0445312 0.0847222
1 0.238281 0.151389 0.0328125 0.0666667
1 0.416406 0.190278 0.0328125 0.075
1 0.348047 0.340972 0.0492188 0.1125
1 0.232812 0.446528 0.065625 0.148611
1 0.304297 0.579167 0.0914062 0.238889
1 0.485156 0.624306 0.0734375 0.231944
1 0.807031 0.655556 0.126563 0.258333
1 0.150781 0.65 0.101562 0.222222
