1 0.377734 0.0805556 0.0179687 0.0416667
1 0.342578 0.186111 0.0257812 0.0555556
3 0.324609 0.0534722 0.0351562 0.101389
1 0.258203 0.325694 0.0585938 0.129167
1 0.352734 0.249306 0.0398437 0.0763889
1 0.407813 0.182639 0.0453125 0.0847222
1 0.238672 0.154861 0.0320312 0.0736111
1 0.347656 0.341667 0.05 0.116667
3 0.476562 0.4875 0.0921875 0.516667
1 0.303125 0.583333 0.096875 0.236111
1 0.235938 0.447917 0.071875 0.159722
1 0.810156 0.663194 0.120312 0.2625
1 0.144141 0.657639 0.110156 0.229167
