1 0.376563 0.0756944 0.0234375 0.0513889
1 0.330469 0.0743056 0.0265625 0.0708333
1 0.276172 0.280556 0.0414063 0.0833333
1 0.238281 0.15625 0.0375 0.0763889
1 0.481641 0.413194 0.0617188 0.154167
1 0.201562 0.532639 0.090625 0.168056
1 0.319531 0.413889 0.0796875 0.241667
